…
    ## # A tibble: 1 × 1
    ##       n
    ##   <int>
    ## 1   134

``` r
instacart %>% 
  group_by(aisle_id) %>% 
  summarize(number_of_items = n()) %>% 
  arrange(desc(number_of_items))
```

    ## # A tibble: 134 × 2
    ##    aisle_id number_of_items
    ##       <int>           <int>
    ##  1       83          150609
    ##  2       24          150473
    ##  3      123           78493
    ##  4      120           55240
    ##  5       21           41699
    ##  6      115           36617
    ##  7       84           32644
    ##  8      107           31269
    ##  9       91           26240
    ## 10      112           23635
    ## # … with 124 more rows
…
